<svg xmlns="http://www.w3.org/2000/svg" viewBox="0 0 425.2 85" style="enable-background:new 0 0 425.2 85" xml:space="preserve">
    <path d="M55.1 57.9c-3.9 3.9-9.4 6.4-15.4 6.4-12 0-21.8-9.7-21.8-21.8 0-12 9.7-21.8 21.8-21.8 6 0 11.5 2.4 15.4 6.4l8.5-8.5C57.5 12.5 49 8.7 39.7 8.7 21 8.7 5.9 23.9 5.9 42.5c0 18.7 15.1 33.8 33.8 33.8 9.3 0 17.8-3.8 23.9-9.9l-8.5-8.5z" fill="#8b8b89"/>
    <path d="M124.2 64.3c-12 0-21.8-9.7-21.8-21.8 0-12 9.7-21.8 21.8-21.8 12 0 21.8 9.7 21.8 21.8-.1 12-9.8 21.8-21.8 21.8m0-55.6c-18.7 0-33.8 15.1-33.8 33.8 0 18.7 15.1 33.8 33.8 33.8 18.7 0 33.8-15.1 33.8-33.8 0-18.6-15.1-33.8-33.8-33.8M87.3 42.5 69.9 25.1l-8.5 8.5 8.9 8.9-8.9 8.8 8.5 8.5 8.9-8.8zM228 9.1c5.6 0 10.9 4.1 10.9 11.1s-5.3 11.1-10.9 11.1c-5.6 0-10.8-4.1-10.8-11.1 0-6.9 5.2-11.1 10.8-11.1m0 18.9c3.6 0 7.2-2.6 7.2-7.7 0-5.2-3.6-7.7-7.2-7.7s-7.1 2.6-7.1 7.7 3.5 7.7 7.1 7.7m19.8 2.9V9.6h3.6v17.9h9.8v3.4zm21.7 0V9.6h3.6v17.9h9.8v3.4zm35.7-5.3h-9l-2 5.4h-3.8l8.3-21.3h4.2l8.3 21.3h-3.9l-2.1-5.4zm-7.7-3.4h6.5l-3.3-8.7-3.2 8.7zm30.4-12.6c4.1 0 6.5 2.4 6.5 5.8 0 2.3-1.3 3.9-3.2 4.6 2.3.6 3.8 2.6 3.8 5.1 0 3.4-2.6 5.9-6.6 5.9h-7.9V9.6h7.4zm-.5 9c2.1 0 3.4-1.2 3.4-3s-1.3-3-3.5-3h-3.2v6h3.3zm.4 9.3c2.2 0 3.6-1.2 3.6-3.1 0-1.8-1.2-3.1-3.5-3.1h-3.8v6.2h3.7zm27.1-18.8c5.6 0 10.9 4.1 10.9 11.1s-5.3 11.1-10.9 11.1c-5.6 0-10.8-4.1-10.8-11.1 0-6.9 5.2-11.1 10.8-11.1m0 18.9c3.6 0 7.2-2.6 7.2-7.7 0-5.2-3.6-7.7-7.2-7.7s-7.1 2.6-7.1 7.7 3.5 7.7 7.1 7.7m58.4-2.4h-9l-2 5.4h-3.8l8.3-21.3h4.2l8.3 21.3h-3.9l-2.1-5.4zm-7.7-3.4h6.5l-3.2-8.7-3.3 8.7zM206 23.4c-1.1 3-3.9 4.5-6.6 4.5-3.6 0-7.1-2.6-7.1-7.7 0-5.2 3.6-7.7 7.1-7.7 2.8 0 5.5 1.5 6.6 4.6h3.8c-1.3-5.1-5.8-8-10.5-8-5.6 0-10.8 4.1-10.8 11.1s5.2 11.1 10.8 11.1c4.7 0 9.1-2.9 10.5-8H206zm176.2-.7h-3.1v8.4h-3.6V9.8h8.5c4.1 0 6.7 2.9 6.7 6.5 0 3-1.7 5.4-4.7 6.1l5.1 8.8H387l-4.8-8.5zm1.2-3.2c2.2 0 3.5-1.3 3.5-3.2 0-2-1.4-3.3-3.7-3.3H379v6.5h4.4z" fill="#fff"/>
</svg>
